{
"nodes":[
{ "name":"Anderson Luiz Fernandes Perez", "idlattes":"3424804303469383", "rotulo":"[Sem rotulo]", "collaborationrank":0.346509426832 },
{ "name":"Antonio Carlos Sobieranski", "idlattes":"3516067759610109", "rotulo":"[Sem rotulo]", "collaborationrank":0.438823610544 },
{ "name":"Alexandre Leopoldo Goncalves", "idlattes":"5138758521691630", "rotulo":"[Sem rotulo]", "collaborationrank":0.360158473253 },
{ "name":"Alvaro Junio Pereira Franco", "idlattes":"5677088846302633", "rotulo":"[Sem rotulo]", "collaborationrank":0.15000000596 },
{ "name":"Analucia Schiaffino Morales", "idlattes":"1734491043363752", "rotulo":"[Sem rotulo]", "collaborationrank":1.35738646984 },
{ "name":"Eliane Pozzebon", "idlattes":"9999217523842385", "rotulo":"[Sem rotulo]", "collaborationrank":2.58417248726 },
{ "name":"Eugenio Simao", "idlattes":"1476795090086695", "rotulo":"[Sem rotulo]", "collaborationrank":0.15000000596 },
{ "name":"Fabricio de Oliveira Ourique", "idlattes":"4461678712281694", "rotulo":"[Sem rotulo]", "collaborationrank":0.438579440117 },
{ "name":"Fabio Rodrigues de la Rocha", "idlattes":"1920673313550122", "rotulo":"[Sem rotulo]", "collaborationrank":0.15000000596 },
{ "name":"Gustavo Mello Machado", "idlattes":"4024003602759848", "rotulo":"[Sem rotulo]", "collaborationrank":0.15000000596 },
{ "name":"Jim Lau", "idlattes":"2718538069100370", "rotulo":"[Sem rotulo]", "collaborationrank":0.727403044701 },
{ "name":"Julian Jair Lopez Salamanca", "idlattes":"9822034482417534", "rotulo":"[Sem rotulo]", "collaborationrank":1.0 },
{ "name":"Luciana Bolan Frigo", "idlattes":"6348215204947696", "rotulo":"[Sem rotulo]", "collaborationrank":2.24192905426 },
{ "name":"Marcelo Daniel Berejuck", "idlattes":"2165795262850820", "rotulo":"[Sem rotulo]", "collaborationrank":1.0 },
{ "name":"Martin Augusto Gagliotti Vigil", "idlattes":"2323279755124770", "rotulo":"[Sem rotulo]", "collaborationrank":0.15000000596 },
{ "name":"Marlon de Matos de Oliveira", "idlattes":"6391733447849406", "rotulo":"[Sem rotulo]", "collaborationrank":0.15000000596 },
{ "name":"Olga Yevseyeva", "idlattes":"8339563650267766", "rotulo":"[Sem rotulo]", "collaborationrank":0.226648285985 },
{ "name":"Priscila Cardoso Calegari", "idlattes":"9984683180721734", "rotulo":"[Sem rotulo]", "collaborationrank":0.15000000596 },
{ "name":"Ricardo Alexandre Reinaldo de Moraes", "idlattes":"6609568015287399", "rotulo":"[Sem rotulo]", "collaborationrank":2.0378074646 },
{ "name":"Roderval Marcelino", "idlattes":"0122916218414168", "rotulo":"[Sem rotulo]", "collaborationrank":0.494456350803 },
{ "name":"Tiago Oliveira Weber", "idlattes":"6453626164328516", "rotulo":"[Sem rotulo]", "collaborationrank":0.15000000596 },
{ "name":"Tatiana Nilson dos Santos", "idlattes":"8372325192731922", "rotulo":"[Sem rotulo]", "collaborationrank":0.746126115322 }
],
"links":[
{ "source":0, "target":5, "value":4.0 },
{ "source":0, "target":21, "value":1.0 },
{ "source":1, "target":18, "value":1.0 },
{ "source":2, "target":19, "value":1.0 },
{ "source":4, "target":7, "value":1.0 },
{ "source":4, "target":10, "value":1.0 },
{ "source":4, "target":18, "value":4.0 },
{ "source":5, "target":12, "value":50.0 },
{ "source":5, "target":16, "value":2.0 },
{ "source":5, "target":19, "value":1.0 },
{ "source":5, "target":21, "value":14.0 },
{ "source":7, "target":18, "value":1.0 },
{ "source":10, "target":18, "value":2.0 },
{ "source":11, "target":13, "value":1.0 },
{ "source":12, "target":16, "value":2.0 },
{ "source":12, "target":19, "value":1.0 },
{ "source":12, "target":21, "value":11.0 }
]
}